simulation/qsim/DigitalFan.msim.vcd
$comment
	File created using the following command:
		vcd file DigitalFan.msim.vcd -direction
$end
$date
	Wed Dec 13 14:45:13 2023
$end
$version
	ModelSim Version 10.1d
$end
$timescale
	1ps
$end
$scope module DigitalFan_vlg_vec_tst $end
$var reg 1 ! bi $end
$var reg 1 " bm $end
$var reg 1 # clk $end
$var reg 1 $ rst $end
$var reg 9 % x [8:0] $end
$var wire 1 & mode $end
$var wire 1 ' q $end
$var wire 1 ( v [1] $end
$var wire 1 ) v [0] $end
$var wire 1 * sampler $end
$scope module i1 $end
$var wire 1 + gnd $end
$var wire 1 , vcc $end
$var wire 1 - unknown $end
$var tri1 1 . devclrn $end
$var tri1 1 / devpor $end
$var tri1 1 0 devoe $end
$var wire 1 1 TimerLoad|counter[1]~11_combout $end
$var wire 1 2 TimerLoad|Equal0~0_combout $end
$var wire 1 3 IntensityCtrl|state.WAIT_HIGH_STATE~regout $end
$var wire 1 4 ModeCtrl|state.DEFAULT~regout $end
$var wire 1 5 IntensityCtrl|Selector3~0_combout $end
$var wire 1 6 ModeCtrl|Selector0~0_combout $end
$var wire 1 7 rst~combout $end
$var wire 1 8 clk~combout $end
$var wire 1 9 clk~clkctrl_outclk $end
$var wire 1 : TimerLoad|counter[0]~9_combout $end
$var wire 1 ; TimerLoad|counter[2]~14 $end
$var wire 1 < TimerLoad|counter[3]~16 $end
$var wire 1 = TimerLoad|counter[4]~17_combout $end
$var wire 1 > bi~combout $end
$var wire 1 ? IntensityCtrl|state~15_combout $end
$var wire 1 @ rst~clk_delay_ctrl_clkout $end
$var wire 1 A rst~clkctrl_outclk $end
$var wire 1 B IntensityCtrl|state.WAIT_LOW_STATE~regout $end
$var wire 1 C bm~combout $end
$var wire 1 D ModeCtrl|state~11_combout $end
$var wire 1 E ModeCtrl|state.WAIT_DEFAULT~regout $end
$var wire 1 F ModeCtrl|state~10_combout $end
$var wire 1 G ModeCtrl|state.WAIT_SAVE~regout $end
$var wire 1 H ModeCtrl|Selector1~0_combout $end
$var wire 1 I ModeCtrl|state.SAVE~regout $end
$var wire 1 J ModeCtrl|Selector2~0_combout $end
$var wire 1 K ModeCtrl|m~regout $end
$var wire 1 L IntensityCtrl|Selector2~0_combout $end
$var wire 1 M IntensityCtrl|Selector2~1_combout $end
$var wire 1 N IntensityCtrl|state.NORMAL_STATE~regout $end
$var wire 1 O IntensityCtrl|state~14_combout $end
$var wire 1 P IntensityCtrl|state.WAIT_NORMAL_STATE~regout $end
$var wire 1 Q IntensityCtrl|Selector5~0_combout $end
$var wire 1 R IntensityCtrl|Selector5~1_combout $end
$var wire 1 S IntensityCtrl|en~regout $end
$var wire 1 T TimerLoad|counter[4]~18 $end
$var wire 1 U TimerLoad|counter[5]~20 $end
$var wire 1 V TimerLoad|counter[6]~22 $end
$var wire 1 W TimerLoad|counter[7]~23_combout $end
$var wire 1 X TimerLoad|counter[7]~24 $end
$var wire 1 Y TimerLoad|counter[8]~25_combout $end
$var wire 1 Z TimerLoad|Equal0~5_combout $end
$var wire 1 [ TimerLoad|counter[0]~10 $end
$var wire 1 \ TimerLoad|counter[1]~12 $end
$var wire 1 ] TimerLoad|counter[2]~13_combout $end
$var wire 1 ^ TimerLoad|counter[3]~15_combout $end
$var wire 1 _ TimerLoad|Equal0~1_combout $end
$var wire 1 ` TimerLoad|counter[6]~21_combout $end
$var wire 1 a TimerLoad|Equal0~3_combout $end
$var wire 1 b TimerLoad|counter[5]~19_combout $end
$var wire 1 c TimerLoad|Equal0~2_combout $end
$var wire 1 d TimerLoad|Equal0~4_combout $end
$var wire 1 e TimerLoad|Q~0_combout $end
$var wire 1 f TimerLoad|Q~regout $end
$var wire 1 g IntensityCtrl|Selector0~0_combout $end
$var wire 1 h IntensityCtrl|state.OFF_STATE~regout $end
$var wire 1 i IntensityCtrl|state~13_combout $end
$var wire 1 j IntensityCtrl|state.WAIT_OFF_STATE~regout $end
$var wire 1 k IntensityCtrl|WideOr7~combout $end
$var wire 1 l IntensityCtrl|Selector1~0_combout $end
$var wire 1 m IntensityCtrl|state.LOW_STATE~regout $end
$var wire 1 n IntensityCtrl|WideOr6~combout $end
$var wire 1 o TimerLoad|counter [8] $end
$var wire 1 p TimerLoad|counter [7] $end
$var wire 1 q TimerLoad|counter [6] $end
$var wire 1 r TimerLoad|counter [5] $end
$var wire 1 s TimerLoad|counter [4] $end
$var wire 1 t TimerLoad|counter [3] $end
$var wire 1 u TimerLoad|counter [2] $end
$var wire 1 v TimerLoad|counter [1] $end
$var wire 1 w TimerLoad|counter [0] $end
$var wire 1 x x~combout [8] $end
$var wire 1 y x~combout [7] $end
$var wire 1 z x~combout [6] $end
$var wire 1 { x~combout [5] $end
$var wire 1 | x~combout [4] $end
$var wire 1 } x~combout [3] $end
$var wire 1 ~ x~combout [2] $end
$var wire 1 !! x~combout [1] $end
$var wire 1 "! x~combout [0] $end
$upscope $end
$upscope $end
$enddefinitions $end
#0
$dumpvars
0!
0"
0#
0$
b0 %
0&
0'
0)
0(
x*
0+
1,
x-
1.
1/
10
01
12
03
04
05
06
07
08
09
1:
0;
1<
0=
0>
0?
0@
0A
0B
0C
0D
0E
0F
0G
0H
0I
0J
0K
0L
0M
0N
0O
0P
0Q
0R
0S
0T
1U
0V
0W
1X
0Y
1Z
0[
1\
0]
0^
1_
0`
1a
0b
1c
1d
0e
0f
0g
0h
0i
0j
1k
0l
0m
1n
0w
0v
0u
0t
0s
0r
0q
0p
0o
0"!
0!!
0~
0}
0|
0{
0z
0y
0x
$end
#5000
1#
18
19
0*
#10000
1!
0#
1>
08
09
1*
1i
1g
#15000
1#
18
19
0*
1j
1h
#20000
0#
08
09
1*
#25000
1#
18
19
0*
#30000
0#
08
09
1*
#35000
1#
18
19
0*
#40000
0#
08
09
1*
#45000
1#
18
19
0*
#50000
0#
08
09
1*
#55000
1#
18
19
0*
#60000
0#
08
09
1*
#65000
1#
18
19
0*
#70000
0!
0#
0>
08
09
1*
1l
0i
#75000
1#
18
19
0*
1m
0j
0k
1)
#80000
0#
08
09
1*
#85000
1#
18
19
0*
#90000
1!
0#
1>
08
09
1*
0l
1?
#95000
1#
18
19
0*
0m
1B
#100000
0#
08
09
1*
#105000
1#
18
19
0*
#110000
1$
0#
17
08
09
1*
1@
1A
0h
0B
1k
1i
0?
0)
#115000
1#
18
19
0*
#120000
0#
08
09
1*
#125000
1#
18
19
0*
#130000
0#
08
09
1*
#135000
1#
18
19
0*
#140000
0!
0#
0>
08
09
1*
0i
0g
#145000
1#
18
19
0*
#150000
0#
08
09
1*
#155000
1#
18
19
0*
#160000
0#
08
09
1*
#165000
1#
18
19
0*
#170000
0#
08
09
1*
#175000
1#
18
19
0*
#180000
0$
1!
0#
07
1>
08
09
1*
0@
0A
1i
1g
#185000
1#
18
19
0*
1j
1h
#190000
0#
08
09
1*
#195000
1#
18
19
0*
#200000
0#
08
09
1*
#205000
1#
18
19
0*
#210000
0#
08
09
1*
#215000
1#
18
19
0*
#220000
0#
08
09
1*
#225000
1#
18
19
0*
#230000
0!
0#
0>
08
09
1*
1l
0i
#235000
1#
18
19
0*
1m
0j
0k
1)
#240000
0#
08
09
1*
#245000
1#
18
19
0*
#250000
1!
0#
1>
08
09
1*
0l
1?
#255000
1#
18
19
0*
0m
1B
#260000
0#
08
09
1*
#265000
1#
18
19
0*
#270000
0#
08
09
1*
#275000
1#
18
19
0*
#280000
0#
08
09
1*
#285000
1#
18
19
0*
#290000
0#
08
09
1*
#295000
1#
18
19
0*
#300000
0#
08
09
1*
#305000
1#
18
19
0*
#310000
0!
0#
0>
08
09
1*
1M
0?
#315000
1#
18
19
0*
1N
0B
1k
0n
0)
1(
#320000
0#
08
09
1*
#325000
1#
18
19
0*
#330000
0#
08
09
1*
#335000
1#
18
19
0*
#340000
1!
0#
1>
08
09
1*
1O
0M
#345000
1#
18
19
0*
1P
0N
#350000
0#
08
09
1*
#355000
1#
18
19
0*
#360000
0#
08
09
1*
#365000
1#
18
19
0*
#370000
0#
08
09
1*
#375000
1#
18
19
0*
#380000
0#
08
09
1*
#385000
1#
18
19
0*
#390000
0#
08
09
1*
#395000
1#
18
19
0*
#400000
0#
08
09
1*
#405000
1#
18
19
0*
#410000
0!
0#
0>
08
09
1*
1R
0O
#415000
1#
18
19
0*
1S
0P
1e
1Q
0k
0R
1R
1)
#420000
0#
08
09
1*
#425000
1#
18
19
0*
1f
1'
#430000
1!
0#
1>
08
09
1*
0R
15
#435000
1#
18
19
0*
0S
13
0e
0Q
#440000
0#
08
09
1*
#445000
1#
18
19
0*
0f
0'
#450000
0#
08
09
1*
#455000
1#
18
19
0*
#460000
0!
0#
0>
08
09
1*
0g
05
#465000
1#
18
19
0*
0h
03
1n
1k
0(
0)
#470000
0#
08
09
1*
#475000
1#
18
19
0*
#480000
0#
08
09
1*
#485000
1#
18
19
0*
#490000
1!
0#
1>
08
09
1*
1i
1g
#495000
1#
18
19
0*
1j
1h
#500000
0#
08
09
1*
#505000
1#
18
19
0*
#510000
0#
08
09
1*
#515000
1#
18
19
0*
#520000
0#
08
09
1*
#525000
1#
18
19
0*
#530000
0#
08
09
1*
#535000
1#
18
19
0*
#540000
0#
08
09
1*
#545000
1#
18
19
0*
#550000
0#
08
09
1*
#555000
1#
18
19
0*
#560000
0#
08
09
1*
#565000
1#
18
19
0*
#570000
0#
08
09
1*
#575000
1#
18
19
0*
#580000
0#
08
09
1*
#585000
1#
18
19
0*
#590000
0#
08
09
1*
#595000
1#
18
19
0*
#600000
0#
08
09
1*
#605000
1#
18
19
0*
#610000
0#
08
09
1*
#615000
1#
18
19
0*
#620000
0#
08
09
1*
#625000
1#
18
19
0*
#630000
0!
0#
0>
08
09
1*
1l
0i
#635000
1#
18
19
0*
1m
0j
0k
1)
#640000
1!
0#
1>
08
09
1*
0l
1?
#645000
1#
18
19
0*
0m
1B
#650000
0#
08
09
1*
#655000
1#
18
19
0*
#660000
0#
08
09
1*
#665000
1#
18
19
0*
#670000
0#
08
09
1*
#675000
1#
18
19
0*
#680000
0#
08
09
1*
#685000
1#
18
19
0*
#690000
0#
08
09
1*
#695000
1#
18
19
0*
#700000
0#
08
09
1*
#705000
1#
18
19
0*
#710000
0#
08
09
1*
#715000
1#
18
19
0*
#720000
0#
08
09
1*
#725000
1#
18
19
0*
#730000
0#
08
09
1*
#735000
1#
18
19
0*
#740000
0#
08
09
1*
#745000
1#
18
19
0*
#750000
0#
08
09
1*
#755000
1#
18
19
0*
#760000
0#
08
09
1*
#765000
1#
18
19
0*
#770000
0!
0#
0>
08
09
1*
1M
0?
#775000
1#
18
19
0*
1N
0B
1k
0n
0)
1(
#780000
1!
0#
1>
08
09
1*
1O
0M
#785000
1#
18
19
0*
1P
0N
#790000
0#
08
09
1*
#795000
1#
18
19
0*
#800000
0#
08
09
1*
#805000
1#
18
19
0*
#810000
0#
08
09
1*
#815000
1#
18
19
0*
#820000
1$
0#
17
08
09
1*
1@
1A
0h
0P
1n
1i
0O
0(
#825000
1#
18
19
0*
#830000
0#
08
09
1*
#835000
1#
18
19
0*
#840000
0#
08
09
1*
#845000
1#
18
19
0*
#850000
0#
08
09
1*
#855000
1#
18
19
0*
#860000
0#
08
09
1*
#865000
1#
18
19
0*
#870000
0#
08
09
1*
#875000
1#
18
19
0*
#880000
0#
08
09
1*
#885000
1#
18
19
0*
#890000
0#
08
09
1*
#895000
1#
18
19
0*
#900000
0#
08
09
1*
#905000
1#
18
19
0*
#910000
0!
0#
0>
08
09
1*
0i
0g
#915000
1#
18
19
0*
#920000
0#
08
09
1*
#925000
1#
18
19
0*
#930000
0#
08
09
1*
#935000
1#
18
19
0*
#940000
0#
08
09
1*
#945000
1#
18
19
0*
#950000
0#
08
09
1*
#955000
1#
18
19
0*
#960000
0#
08
09
1*
#965000
1#
18
19
0*
#970000
0#
08
09
1*
#975000
1#
18
19
0*
#980000
0#
08
09
1*
#985000
1#
18
19
0*
#990000
0#
08
09
1*
#995000
1#
18
19
0*
