simulation/qsim/DigitalFan.msim.vcd
$comment
	File created using the following command:
		vcd file DigitalFan.msim.vcd -direction
$end
$date
	Wed Dec 13 15:22:33 2023
$end
$version
	ModelSim Version 10.1d
$end
$timescale
	1ps
$end
$scope module DigitalFan_vlg_vec_tst $end
$var reg 1 ! bi $end
$var reg 1 " bm $end
$var reg 1 # clk $end
$var reg 1 $ rst $end
$var wire 1 % mode $end
$var wire 1 & q $end
$var wire 1 ' v [1] $end
$var wire 1 ( v [0] $end
$var wire 1 ) sampler $end
$scope module i1 $end
$var wire 1 * gnd $end
$var wire 1 + vcc $end
$var wire 1 , unknown $end
$var tri1 1 - devclrn $end
$var tri1 1 . devpor $end
$var tri1 1 / devoe $end
$var wire 1 0 TimerLoad|Add0~4_combout $end
$var wire 1 1 TimerLoad|Add0~10_combout $end
$var wire 1 2 ModeCtrl|state.WAIT_SAVE~regout $end
$var wire 1 3 TimerLoad|counter~0_combout $end
$var wire 1 4 ModeCtrl|state~10_combout $end
$var wire 1 5 rst~combout $end
$var wire 1 6 clk~combout $end
$var wire 1 7 clk~clkctrl_outclk $end
$var wire 1 8 TimerLoad|Add0~12_combout $end
$var wire 1 9 bm~combout $end
$var wire 1 : ModeCtrl|Selector1~0_combout $end
$var wire 1 ; ModeCtrl|state.SAVE~regout $end
$var wire 1 < ModeCtrl|Selector0~0_combout $end
$var wire 1 = ModeCtrl|state.DEFAULT~regout $end
$var wire 1 > ModeCtrl|state~11_combout $end
$var wire 1 ? ModeCtrl|state.WAIT_DEFAULT~regout $end
$var wire 1 @ ModeCtrl|Selector2~0_combout $end
$var wire 1 A ModeCtrl|m~regout $end
$var wire 1 B IntensityCtrl|Selector5~0_combout $end
$var wire 1 C bi~combout $end
$var wire 1 D IntensityCtrl|Selector5~1_combout $end
$var wire 1 E rst~clk_delay_ctrl_clkout $end
$var wire 1 F rst~clkctrl_outclk $end
$var wire 1 G IntensityCtrl|en~regout $end
$var wire 1 H TimerLoad|Equal0~1_combout $end
$var wire 1 I TimerLoad|Add0~0_combout $end
$var wire 1 J TimerLoad|counter~2_combout $end
$var wire 1 K TimerLoad|Add0~6_combout $end
$var wire 1 L TimerLoad|Equal0~0_combout $end
$var wire 1 M TimerLoad|Add0~1 $end
$var wire 1 N TimerLoad|Add0~2_combout $end
$var wire 1 O TimerLoad|counter~1_combout $end
$var wire 1 P TimerLoad|Add0~3 $end
$var wire 1 Q TimerLoad|Add0~5 $end
$var wire 1 R TimerLoad|Add0~7 $end
$var wire 1 S TimerLoad|Add0~8_combout $end
$var wire 1 T TimerLoad|Add0~9 $end
$var wire 1 U TimerLoad|Add0~11 $end
$var wire 1 V TimerLoad|Add0~13 $end
$var wire 1 W TimerLoad|Add0~14_combout $end
$var wire 1 X TimerLoad|Add0~15 $end
$var wire 1 Y TimerLoad|Add0~16_combout $end
$var wire 1 Z TimerLoad|Q~0_combout $end
$var wire 1 [ TimerLoad|Q~regout $end
$var wire 1 \ IntensityCtrl|Selector1~0_combout $end
$var wire 1 ] IntensityCtrl|state.LOW_STATE~regout $end
$var wire 1 ^ IntensityCtrl|state~15_combout $end
$var wire 1 _ IntensityCtrl|state.WAIT_LOW_STATE~regout $end
$var wire 1 ` IntensityCtrl|Selector2~0_combout $end
$var wire 1 a IntensityCtrl|Selector2~1_combout $end
$var wire 1 b IntensityCtrl|state.NORMAL_STATE~regout $end
$var wire 1 c IntensityCtrl|state~14_combout $end
$var wire 1 d IntensityCtrl|state.WAIT_NORMAL_STATE~regout $end
$var wire 1 e IntensityCtrl|Selector3~0_combout $end
$var wire 1 f IntensityCtrl|state.WAIT_HIGH_STATE~regout $end
$var wire 1 g IntensityCtrl|Selector0~0_combout $end
$var wire 1 h IntensityCtrl|state.OFF_STATE~regout $end
$var wire 1 i IntensityCtrl|state~13_combout $end
$var wire 1 j IntensityCtrl|state.WAIT_OFF_STATE~regout $end
$var wire 1 k IntensityCtrl|WideOr7~combout $end
$var wire 1 l IntensityCtrl|WideOr6~combout $end
$var wire 1 m TimerLoad|counter [8] $end
$var wire 1 n TimerLoad|counter [7] $end
$var wire 1 o TimerLoad|counter [6] $end
$var wire 1 p TimerLoad|counter [5] $end
$var wire 1 q TimerLoad|counter [4] $end
$var wire 1 r TimerLoad|counter [3] $end
$var wire 1 s TimerLoad|counter [2] $end
$var wire 1 t TimerLoad|counter [1] $end
$var wire 1 u TimerLoad|counter [0] $end
$upscope $end
$upscope $end
$enddefinitions $end
#0
$dumpvars
0!
0"
0#
0$
0%
0&
0(
0'
x)
0*
1+
x,
1-
1.
1/
00
01
02
03
04
05
06
07
08
09
0:
0;
0<
0=
0>
0?
0@
0A
0B
0C
0D
0E
0F
0G
1H
1I
1J
0K
0L
0M
0N
0O
1P
0Q
1R
0S
0T
1U
0V
0W
1X
0Y
0Z
0[
0\
0]
0^
0_
0`
0a
0b
0c
0d
0e
0f
0g
0h
0i
0j
1k
1l
0u
0t
0s
0r
0q
0p
0o
0n
0m
$end
#5000
1#
16
17
0)
#10000
1!
0#
1C
06
07
1)
1i
1g
#15000
1#
16
17
0)
1j
1h
#20000
0#
06
07
1)
#25000
1#
16
17
0)
#30000
0#
06
07
1)
#35000
1#
16
17
0)
#40000
0#
06
07
1)
#45000
1#
16
17
0)
#50000
0#
06
07
1)
#55000
1#
16
17
0)
#60000
0#
06
07
1)
#65000
1#
16
17
0)
#70000
0!
0#
0C
06
07
1)
0i
1\
#75000
1#
16
17
0)
0j
1]
0k
1(
#80000
0#
06
07
1)
#85000
1#
16
17
0)
#90000
1!
0#
1C
06
07
1)
1^
0\
#95000
1#
16
17
0)
1_
0]
#100000
0#
06
07
1)
#105000
1#
16
17
0)
#110000
1$
0#
15
06
07
1)
1E
1F
0h
0_
1k
1i
0^
0(
#115000
1#
16
17
0)
#120000
0#
06
07
1)
#125000
1#
16
17
0)
#130000
0#
06
07
1)
#135000
1#
16
17
0)
#140000
0!
0#
0C
06
07
1)
0i
0g
#145000
1#
16
17
0)
#150000
0#
06
07
1)
#155000
1#
16
17
0)
#160000
0#
06
07
1)
#165000
1#
16
17
0)
#170000
0#
06
07
1)
#175000
1#
16
17
0)
#180000
0$
1!
0#
05
1C
06
07
1)
0E
0F
1i
1g
#185000
1#
16
17
0)
1j
1h
#190000
0#
06
07
1)
#195000
1#
16
17
0)
#200000
0#
06
07
1)
#205000
1#
16
17
0)
#210000
0#
06
07
1)
#215000
1#
16
17
0)
#220000
0#
06
07
1)
#225000
1#
16
17
0)
#230000
0!
0#
0C
06
07
1)
0i
1\
#235000
1#
16
17
0)
0j
1]
0k
1(
#240000
0#
06
07
1)
#245000
1#
16
17
0)
#250000
1!
0#
1C
06
07
1)
1^
0\
#255000
1#
16
17
0)
1_
0]
#260000
0#
06
07
1)
#265000
1#
16
17
0)
#270000
0#
06
07
1)
#275000
1#
16
17
0)
#280000
0#
06
07
1)
#285000
1#
16
17
0)
#290000
0#
06
07
1)
#295000
1#
16
17
0)
#300000
0#
06
07
1)
#305000
1#
16
17
0)
#310000
0!
0#
0C
06
07
1)
1a
0^
#315000
1#
16
17
0)
1b
0_
1k
0l
0(
1'
#320000
0#
06
07
1)
#325000
1#
16
17
0)
#330000
0#
06
07
1)
#335000
1#
16
17
0)
#340000
1!
0#
1C
06
07
1)
1c
0a
#345000
1#
16
17
0)
1d
0b
#350000
0#
06
07
1)
#355000
1#
16
17
0)
#360000
0#
06
07
1)
#365000
1#
16
17
0)
#370000
0#
06
07
1)
#375000
1#
16
17
0)
#380000
0#
06
07
1)
#385000
1#
16
17
0)
#390000
0#
06
07
1)
#395000
1#
16
17
0)
#400000
0#
06
07
1)
#405000
1#
16
17
0)
#410000
0!
0#
0C
06
07
1)
0c
1D
#415000
1#
16
17
0)
0d
1G
0k
0D
1B
1D
1(
#420000
0#
06
07
1)
#425000
1#
16
17
0)
1u
1M
0I
1N
0J
1O
#430000
1!
0#
1C
06
07
1)
1e
0D
#435000
1#
16
17
0)
1f
1t
0u
0G
0P
0N
0M
1I
0B
10
0O
1P
1N
1J
13
00
1O
03
#440000
0#
06
07
1)
#445000
1#
16
17
0)
#450000
0#
06
07
1)
#455000
1#
16
17
0)
#460000
0!
0#
0C
06
07
1)
0g
0e
#465000
1#
16
17
0)
0h
0f
1l
1k
0'
0(
#470000
0#
06
07
1)
#475000
1#
16
17
0)
#480000
0#
06
07
1)
#485000
1#
16
17
0)
#490000
1!
0#
1C
06
07
1)
1i
1g
#495000
1#
16
17
0)
1j
1h
#500000
0#
06
07
1)
#505000
1#
16
17
0)
#510000
0#
06
07
1)
#515000
1#
16
17
0)
#520000
0#
06
07
1)
#525000
1#
16
17
0)
#530000
0#
06
07
1)
#535000
1#
16
17
0)
#540000
0#
06
07
1)
#545000
1#
16
17
0)
#550000
0#
06
07
1)
#555000
1#
16
17
0)
#560000
0#
06
07
1)
#565000
1#
16
17
0)
#570000
0#
06
07
1)
#575000
1#
16
17
0)
#580000
0#
06
07
1)
#585000
1#
16
17
0)
#590000
0#
06
07
1)
#595000
1#
16
17
0)
#600000
0#
06
07
1)
#605000
1#
16
17
0)
#610000
0#
06
07
1)
#615000
1#
16
17
0)
#620000
0#
06
07
1)
#625000
1#
16
17
0)
#630000
0!
0#
0C
06
07
1)
0i
1\
#635000
1#
16
17
0)
0j
1]
0k
1(
#640000
1!
0#
1C
06
07
1)
1^
0\
#645000
1#
16
17
0)
1_
0]
#650000
0#
06
07
1)
#655000
1#
16
17
0)
#660000
0#
06
07
1)
#665000
1#
16
17
0)
#670000
0#
06
07
1)
#675000
1#
16
17
0)
#680000
0#
06
07
1)
#685000
1#
16
17
0)
#690000
0#
06
07
1)
#695000
1#
16
17
0)
#700000
0#
06
07
1)
#705000
1#
16
17
0)
#710000
0#
06
07
1)
#715000
1#
16
17
0)
#720000
0#
06
07
1)
#725000
1#
16
17
0)
#730000
0#
06
07
1)
#735000
1#
16
17
0)
#740000
0#
06
07
1)
#745000
1#
16
17
0)
#750000
0#
06
07
1)
#755000
1#
16
17
0)
#760000
0#
06
07
1)
#765000
1#
16
17
0)
#770000
0!
0#
0C
06
07
1)
1a
0^
#775000
1#
16
17
0)
1b
0_
1k
0l
0(
1'
#780000
1!
0#
1C
06
07
1)
1c
0a
#785000
1#
16
17
0)
1d
0b
#790000
0#
06
07
1)
#795000
1#
16
17
0)
#800000
0#
06
07
1)
#805000
1#
16
17
0)
#810000
0#
06
07
1)
#815000
1#
16
17
0)
#820000
1$
0#
15
06
07
1)
1E
1F
0h
0d
1l
1i
0c
0'
#825000
1#
16
17
0)
#830000
0#
06
07
1)
#835000
1#
16
17
0)
#840000
0#
06
07
1)
#845000
1#
16
17
0)
#850000
0#
06
07
1)
#855000
1#
16
17
0)
#860000
0#
06
07
1)
#865000
1#
16
17
0)
#870000
0#
06
07
1)
#875000
1#
16
17
0)
#880000
0#
06
07
1)
#885000
1#
16
17
0)
#890000
0#
06
07
1)
#895000
1#
16
17
0)
#900000
0#
06
07
1)
#905000
1#
16
17
0)
#910000
0!
0#
0C
06
07
1)
0i
0g
#915000
1#
16
17
0)
#920000
0#
06
07
1)
#925000
1#
16
17
0)
#930000
0#
06
07
1)
#935000
1#
16
17
0)
#940000
0#
06
07
1)
#945000
1#
16
17
0)
#950000
0#
06
07
1)
#955000
1#
16
17
0)
#960000
0#
06
07
1)
#965000
1#
16
17
0)
#970000
0#
06
07
1)
#975000
1#
16
17
0)
#980000
0#
06
07
1)
#985000
1#
16
17
0)
#990000
0#
06
07
1)
#995000
1#
16
17
0)
